%YAML 1.1
%TAG !u! tag:unity3d.com,2011:
--- !u!74 &7400000
AnimationClip:
  m_ObjectHideFlags: 0
  m_PrefabParentObject: {fileID: 0}
  m_PrefabInternal: {fileID: 0}
  m_Name: Walk
  serializedVersion: 6
  m_Legacy: 0
  m_Compressed: 0
  m_UseHighQualityCurve: 1
  m_RotationCurves: []
  m_CompressedRotationCurves: []
  m_EulerCurves: []
  m_PositionCurves: []
  m_ScaleCurves: []
  m_FloatCurves: []
  m_PPtrCurves:
  - curve:
    - time: 0
      value: {fileID: 21300000, guid: 773b42998d5314d0883d1a20975dcb45, type: 3}
    - time: 0.1
      value: {fileID: 21300000, guid: 22e8198c32d5542db9f761dbbc3fa967, type: 3}
    - time: 0.2
      value: {fileID: 21300000, guid: c2b295a7462024fd988e2657f175f52f, type: 3}
    - time: 0.3
      value: {fileID: 21300000, guid: bd1292237ab8345de991d9b797ea33a0, type: 3}
    - time: 0.4
      value: {fileID: 21300000, guid: 366e03194ddb6445f8cd6a299c53a748, type: 3}
    - time: 0.5
      value: {fileID: 21300000, guid: 51bc7fa77426b4415a052f971fe4876b, type: 3}
    - time: 0.6
      value: {fileID: 21300000, guid: 8b275b7c35ffb420fa1aeccf8d587bfa, type: 3}
    - time: 0.7
      value: {fileID: 21300000, guid: f6c32d5c2d3cc4275ba3cc9b0f91a222, type: 3}
    - time: 0.8
      value: {fileID: 21300000, guid: b6bfd7709b3a141c6b0079e78b125e3b, type: 3}
    - time: 0.9
      value: {fileID: 21300000, guid: f82f8d0b45fc041a0a81f07109c8c811, type: 3}
    attribute: m_Sprite
    path: 
    classID: 212
    script: {fileID: 0}
  m_SampleRate: 10
  m_WrapMode: 0
  m_Bounds:
    m_Center: {x: 0, y: 0, z: 0}
    m_Extent: {x: 0, y: 0, z: 0}
  m_ClipBindingConstant:
    genericBindings:
    - serializedVersion: 2
      path: 0
      attribute: 0
      script: {fileID: 0}
      typeID: 212
      customType: 23
      isPPtrCurve: 1
    pptrCurveMapping:
    - {fileID: 21300000, guid: 773b42998d5314d0883d1a20975dcb45, type: 3}
    - {fileID: 21300000, guid: 22e8198c32d5542db9f761dbbc3fa967, type: 3}
    - {fileID: 21300000, guid: c2b295a7462024fd988e2657f175f52f, type: 3}
    - {fileID: 21300000, guid: bd1292237ab8345de991d9b797ea33a0, type: 3}
    - {fileID: 21300000, guid: 366e03194ddb6445f8cd6a299c53a748, type: 3}
    - {fileID: 21300000, guid: 51bc7fa77426b4415a052f971fe4876b, type: 3}
    - {fileID: 21300000, guid: 8b275b7c35ffb420fa1aeccf8d587bfa, type: 3}
    - {fileID: 21300000, guid: f6c32d5c2d3cc4275ba3cc9b0f91a222, type: 3}
    - {fileID: 21300000, guid: b6bfd7709b3a141c6b0079e78b125e3b, type: 3}
    - {fileID: 21300000, guid: f82f8d0b45fc041a0a81f07109c8c811, type: 3}
  m_AnimationClipSettings:
    serializedVersion: 2
    m_AdditiveReferencePoseClip: {fileID: 0}
    m_AdditiveReferencePoseTime: 0
    m_StartTime: 0
    m_StopTime: 1
    m_OrientationOffsetY: 0
    m_Level: 0
    m_CycleOffset: 0
    m_HasAdditiveReferencePose: 0
    m_LoopTime: 1
    m_LoopBlend: 0
    m_LoopBlendOrientation: 0
    m_LoopBlendPositionY: 0
    m_LoopBlendPositionXZ: 0
    m_KeepOriginalOrientation: 0
    m_KeepOriginalPositionY: 1
    m_KeepOriginalPositionXZ: 0
    m_HeightFromFeet: 0
    m_Mirror: 0
  m_EditorCurves: []
  m_EulerEditorCurves: []
  m_HasGenericRootTransform: 0
  m_HasMotionFloatCurves: 0
  m_GenerateMotionCurves: 0
  m_Events: []
