%YAML 1.1
%TAG !u! tag:unity3d.com,2011:
--- !u!74 &7400000
AnimationClip:
  m_ObjectHideFlags: 0
  m_PrefabParentObject: {fileID: 0}
  m_PrefabInternal: {fileID: 0}
  m_Name: Atack
  serializedVersion: 6
  m_Legacy: 0
  m_Compressed: 0
  m_UseHighQualityCurve: 1
  m_RotationCurves: []
  m_CompressedRotationCurves: []
  m_EulerCurves: []
  m_PositionCurves: []
  m_ScaleCurves: []
  m_FloatCurves:
  - curve:
      serializedVersion: 2
      m_Curve:
      - serializedVersion: 2
        time: 0
        value: 0.12926021
        inSlope: 0
        outSlope: 0
        tangentMode: 136
      - serializedVersion: 2
        time: 0.025
        value: -0.70038575
        inSlope: 0
        outSlope: 0
        tangentMode: 136
      - serializedVersion: 2
        time: 0.075
        value: -0.20356306
        inSlope: 0
        outSlope: 0
        tangentMode: 136
      - serializedVersion: 2
        time: 0.225
        value: -0.35791576
        inSlope: -2.1223507
        outSlope: -2.1223507
        tangentMode: 136
      - serializedVersion: 2
        time: 0.25
        value: -0.5749744
        inSlope: -3.4729373
        outSlope: -3.4729373
        tangentMode: 136
      - serializedVersion: 2
        time: 0.275
        value: -0.61838615
        inSlope: 0
        outSlope: 0
        tangentMode: 136
      m_PreInfinity: 2
      m_PostInfinity: 2
      m_RotationOrder: 4
    attribute: m_Offset.x
    path: 
    classID: 70
    script: {fileID: 0}
  - curve:
      serializedVersion: 2
      m_Curve:
      - serializedVersion: 2
        time: 0
        value: 1.4094396
        inSlope: 0
        outSlope: 0
        tangentMode: 136
      - serializedVersion: 2
        time: 0.025
        value: 0.84991133
        inSlope: 0
        outSlope: 0
        tangentMode: 136
      - serializedVersion: 2
        time: 0.075
        value: 1.0332054
        inSlope: 0
        outSlope: 0
        tangentMode: 136
      - serializedVersion: 2
        time: 0.225
        value: 0.7245
        inSlope: 0
        outSlope: 0
        tangentMode: 136
      - serializedVersion: 2
        time: 0.25
        value: 0.9463823
        inSlope: 0
        outSlope: 0
        tangentMode: 136
      - serializedVersion: 2
        time: 0.275
        value: 0.9367353
        inSlope: 0
        outSlope: 0
        tangentMode: 136
      m_PreInfinity: 2
      m_PostInfinity: 2
      m_RotationOrder: 4
    attribute: m_Size.x
    path: 
    classID: 70
    script: {fileID: 0}
  m_PPtrCurves:
  - curve:
    - time: 0
      value: {fileID: 21300000, guid: 337af31a1c362af468c0274fe64b362c, type: 3}
    - time: 0.025
      value: {fileID: 21300000, guid: 8ae703a59a9a952458441b1b2a3985ac, type: 3}
    - time: 0.05
      value: {fileID: 21300000, guid: 01cc24b2004230342828902348eb61bb, type: 3}
    - time: 0.075
      value: {fileID: 21300000, guid: 253a107803ebb724d81f043348a5ee0c, type: 3}
    - time: 0.1
      value: {fileID: 21300000, guid: 52f753c7ce8f3fa4c95ddd0db7834caa, type: 3}
    - time: 0.125
      value: {fileID: 21300000, guid: 5ded00ed4369665438091059fb20cec1, type: 3}
    - time: 0.15
      value: {fileID: 21300000, guid: e416e76b3e6cc82499fcd51bff6b221c, type: 3}
    - time: 0.175
      value: {fileID: 21300000, guid: 4637903f24e3d0740bc09d63dbee6373, type: 3}
    - time: 0.2
      value: {fileID: 21300000, guid: b668e3a0c67b5ae4d81ab795f42cf6c8, type: 3}
    - time: 0.225
      value: {fileID: 21300000, guid: 0a92ac49acdb1ca4bbc0eefc7c718083, type: 3}
    - time: 0.25
      value: {fileID: 21300000, guid: 8e3d3f3455fd8f14c9c9fcba7291b4bc, type: 3}
    - time: 0.275
      value: {fileID: 21300000, guid: 337af31a1c362af468c0274fe64b362c, type: 3}
    attribute: m_Sprite
    path: 
    classID: 212
    script: {fileID: 0}
  m_SampleRate: 40
  m_WrapMode: 0
  m_Bounds:
    m_Center: {x: 0, y: 0, z: 0}
    m_Extent: {x: 0, y: 0, z: 0}
  m_ClipBindingConstant:
    genericBindings:
    - serializedVersion: 2
      path: 0
      attribute: 413499720
      script: {fileID: 0}
      typeID: 70
      customType: 0
      isPPtrCurve: 0
    - serializedVersion: 2
      path: 0
      attribute: 4197328169
      script: {fileID: 0}
      typeID: 70
      customType: 0
      isPPtrCurve: 0
    - serializedVersion: 2
      path: 0
      attribute: 0
      script: {fileID: 0}
      typeID: 212
      customType: 23
      isPPtrCurve: 1
    pptrCurveMapping:
    - {fileID: 21300000, guid: 337af31a1c362af468c0274fe64b362c, type: 3}
    - {fileID: 21300000, guid: 8ae703a59a9a952458441b1b2a3985ac, type: 3}
    - {fileID: 21300000, guid: 01cc24b2004230342828902348eb61bb, type: 3}
    - {fileID: 21300000, guid: 253a107803ebb724d81f043348a5ee0c, type: 3}
    - {fileID: 21300000, guid: 52f753c7ce8f3fa4c95ddd0db7834caa, type: 3}
    - {fileID: 21300000, guid: 5ded00ed4369665438091059fb20cec1, type: 3}
    - {fileID: 21300000, guid: e416e76b3e6cc82499fcd51bff6b221c, type: 3}
    - {fileID: 21300000, guid: 4637903f24e3d0740bc09d63dbee6373, type: 3}
    - {fileID: 21300000, guid: b668e3a0c67b5ae4d81ab795f42cf6c8, type: 3}
    - {fileID: 21300000, guid: 0a92ac49acdb1ca4bbc0eefc7c718083, type: 3}
    - {fileID: 21300000, guid: 8e3d3f3455fd8f14c9c9fcba7291b4bc, type: 3}
    - {fileID: 21300000, guid: 337af31a1c362af468c0274fe64b362c, type: 3}
  m_AnimationClipSettings:
    serializedVersion: 2
    m_AdditiveReferencePoseClip: {fileID: 0}
    m_AdditiveReferencePoseTime: 0
    m_StartTime: 0
    m_StopTime: 0.3
    m_OrientationOffsetY: 0
    m_Level: 0
    m_CycleOffset: 0
    m_HasAdditiveReferencePose: 0
    m_LoopTime: 1
    m_LoopBlend: 0
    m_LoopBlendOrientation: 0
    m_LoopBlendPositionY: 0
    m_LoopBlendPositionXZ: 0
    m_KeepOriginalOrientation: 0
    m_KeepOriginalPositionY: 1
    m_KeepOriginalPositionXZ: 0
    m_HeightFromFeet: 0
    m_Mirror: 0
  m_EditorCurves:
  - curve:
      serializedVersion: 2
      m_Curve:
      - serializedVersion: 2
        time: 0
        value: 0.12926021
        inSlope: 0
        outSlope: 0
        tangentMode: 136
      - serializedVersion: 2
        time: 0.025
        value: -0.70038575
        inSlope: 0
        outSlope: 0
        tangentMode: 136
      - serializedVersion: 2
        time: 0.075
        value: -0.20356306
        inSlope: 0
        outSlope: 0
        tangentMode: 136
      - serializedVersion: 2
        time: 0.225
        value: -0.35791576
        inSlope: -2.1223507
        outSlope: -2.1223507
        tangentMode: 136
      - serializedVersion: 2
        time: 0.25
        value: -0.5749744
        inSlope: -3.4729373
        outSlope: -3.4729373
        tangentMode: 136
      - serializedVersion: 2
        time: 0.275
        value: -0.61838615
        inSlope: 0
        outSlope: 0
        tangentMode: 136
      m_PreInfinity: 2
      m_PostInfinity: 2
      m_RotationOrder: 4
    attribute: m_Offset.x
    path: 
    classID: 70
    script: {fileID: 0}
  - curve:
      serializedVersion: 2
      m_Curve:
      - serializedVersion: 2
        time: 0
        value: 1.4094396
        inSlope: 0
        outSlope: 0
        tangentMode: 136
      - serializedVersion: 2
        time: 0.025
        value: 0.84991133
        inSlope: 0
        outSlope: 0
        tangentMode: 136
      - serializedVersion: 2
        time: 0.075
        value: 1.0332054
        inSlope: 0
        outSlope: 0
        tangentMode: 136
      - serializedVersion: 2
        time: 0.225
        value: 0.7245
        inSlope: 0
        outSlope: 0
        tangentMode: 136
      - serializedVersion: 2
        time: 0.25
        value: 0.9463823
        inSlope: 0
        outSlope: 0
        tangentMode: 136
      - serializedVersion: 2
        time: 0.275
        value: 0.9367353
        inSlope: 0
        outSlope: 0
        tangentMode: 136
      m_PreInfinity: 2
      m_PostInfinity: 2
      m_RotationOrder: 4
    attribute: m_Size.x
    path: 
    classID: 70
    script: {fileID: 0}
  m_EulerEditorCurves: []
  m_HasGenericRootTransform: 0
  m_HasMotionFloatCurves: 0
  m_GenerateMotionCurves: 0
  m_Events: []
