%YAML 1.1
%TAG !u! tag:unity3d.com,2011:
--- !u!74 &7400000
AnimationClip:
  m_ObjectHideFlags: 0
  m_PrefabParentObject: {fileID: 0}
  m_PrefabInternal: {fileID: 0}
  m_Name: Attack
  serializedVersion: 6
  m_Legacy: 0
  m_Compressed: 0
  m_UseHighQualityCurve: 1
  m_RotationCurves: []
  m_CompressedRotationCurves: []
  m_EulerCurves: []
  m_PositionCurves: []
  m_ScaleCurves: []
  m_FloatCurves: []
  m_PPtrCurves:
  - curve:
    - time: 0
      value: {fileID: 21300000, guid: 521138dc09dc2e745b077db29ed70a5c, type: 3}
    - time: 0.025
      value: {fileID: 21300000, guid: 6d2cb3d95f376a34b8fa6e6dcb3a3037, type: 3}
    - time: 0.05
      value: {fileID: 21300000, guid: 67111ced408b979459a6a06fc470abcf, type: 3}
    - time: 0.075
      value: {fileID: 21300000, guid: 09f8f912b01e2e54e89c8e9a3bd01e9b, type: 3}
    - time: 0.1
      value: {fileID: 21300000, guid: a1c1a83177933034e995a7cea38610c9, type: 3}
    - time: 0.125
      value: {fileID: 21300000, guid: 64bd27944417759419096b0f1e83600b, type: 3}
    - time: 0.15
      value: {fileID: 21300000, guid: 1191de915d4839f43bd82f8119089332, type: 3}
    - time: 0.175
      value: {fileID: 21300000, guid: 1e654de4edeaca44e8379aa8e6df56f6, type: 3}
    - time: 0.2
      value: {fileID: 21300000, guid: 61b83a72041415b4594a1517d4459abd, type: 3}
    - time: 0.225
      value: {fileID: 21300000, guid: 79fc6d4b935f46a47a8c4215002b7059, type: 3}
    - time: 0.25
      value: {fileID: 21300000, guid: c17d18ee90539504ba2a39982b802e79, type: 3}
    - time: 0.275
      value: {fileID: 21300000, guid: 09ce0b67f3f5f2741888a2463ab70fb6, type: 3}
    - time: 0.3
      value: {fileID: 21300000, guid: a63e50dd162fcef4392405f61c06dd42, type: 3}
    - time: 0.325
      value: {fileID: 21300000, guid: cada9e458c8b5c641b8a5b7951d839c0, type: 3}
    - time: 0.35
      value: {fileID: 21300000, guid: 4003674e366b6864badec53f0b614eed, type: 3}
    - time: 0.375
      value: {fileID: 21300000, guid: 31cb2261529050145a7624e1dd7eaeb1, type: 3}
    - time: 0.4
      value: {fileID: 21300000, guid: 20bd1388a97d3e14cb1077efe70098c1, type: 3}
    - time: 0.425
      value: {fileID: 21300000, guid: 9856d67ad52411540aaa2938c176a2c2, type: 3}
    - time: 0.45
      value: {fileID: 21300000, guid: aed9dba8f1bf7eb4584ad6f3d3654fe4, type: 3}
    - time: 0.475
      value: {fileID: 21300000, guid: acd700c10e6d9c447bcb943a280bb586, type: 3}
    - time: 0.5
      value: {fileID: 21300000, guid: 1b530ca545b1aef4490d423ccaee75a2, type: 3}
    - time: 0.525
      value: {fileID: 21300000, guid: d60084f0dd1c895419474d69a4a55f7a, type: 3}
    - time: 0.55
      value: {fileID: 21300000, guid: aad3596121ef6f146884046dfc9dd8f7, type: 3}
    - time: 0.575
      value: {fileID: 21300000, guid: e94022d6f0fb2634c8e467f0027172f2, type: 3}
    - time: 0.6
      value: {fileID: 21300000, guid: 35956eb43a21fa045895a0e641158ff5, type: 3}
    - time: 0.625
      value: {fileID: 21300000, guid: b7783d4d59c2bbc47b018d140a508d48, type: 3}
    - time: 0.65
      value: {fileID: 21300000, guid: 3e5f0a10d4db8b248a7feb35e1376fca, type: 3}
    - time: 0.675
      value: {fileID: 21300000, guid: 80c060a9f5df7c0418d9b18a027508f3, type: 3}
    - time: 0.7
      value: {fileID: 21300000, guid: 44c1bcb475cfe254dbda446ac6312f19, type: 3}
    - time: 0.725
      value: {fileID: 21300000, guid: d04c590ce163ba0468e3829a13bf41ba, type: 3}
    - time: 0.75
      value: {fileID: 21300000, guid: 13da77a2391647643abb8681fad87c49, type: 3}
    - time: 0.775
      value: {fileID: 21300000, guid: d5f6f9e2809b0594ab34f86c4af51eb2, type: 3}
    - time: 0.8
      value: {fileID: 21300000, guid: a28ad0c4ef66bca468f4eda7f6253bc0, type: 3}
    - time: 0.825
      value: {fileID: 21300000, guid: 84610e8645c7c82439c1002696aa45f5, type: 3}
    - time: 0.85
      value: {fileID: 21300000, guid: 7fcd76785890a36499c603b9d8234c24, type: 3}
    - time: 0.875
      value: {fileID: 21300000, guid: 54e9a09f47cdf4d42aef39a08ebd3f49, type: 3}
    - time: 0.9
      value: {fileID: 21300000, guid: afb02d95a8a0b6f4a8db3681a8634c09, type: 3}
    - time: 0.925
      value: {fileID: 21300000, guid: d96371897e1b45b4c831a571e731ef88, type: 3}
    - time: 0.95
      value: {fileID: 21300000, guid: b3c1896d1bcb491408e59644dce95690, type: 3}
    - time: 0.975
      value: {fileID: 21300000, guid: 38f1eb19b2909fa458ebc8750ae7150b, type: 3}
    - time: 1
      value: {fileID: 21300000, guid: 521138dc09dc2e745b077db29ed70a5c, type: 3}
    attribute: m_Sprite
    path: 
    classID: 212
    script: {fileID: 0}
  m_SampleRate: 40
  m_WrapMode: 0
  m_Bounds:
    m_Center: {x: 0, y: 0, z: 0}
    m_Extent: {x: 0, y: 0, z: 0}
  m_ClipBindingConstant:
    genericBindings:
    - serializedVersion: 2
      path: 0
      attribute: 0
      script: {fileID: 0}
      typeID: 212
      customType: 23
      isPPtrCurve: 1
    pptrCurveMapping:
    - {fileID: 21300000, guid: 521138dc09dc2e745b077db29ed70a5c, type: 3}
    - {fileID: 21300000, guid: 6d2cb3d95f376a34b8fa6e6dcb3a3037, type: 3}
    - {fileID: 21300000, guid: 67111ced408b979459a6a06fc470abcf, type: 3}
    - {fileID: 21300000, guid: 09f8f912b01e2e54e89c8e9a3bd01e9b, type: 3}
    - {fileID: 21300000, guid: a1c1a83177933034e995a7cea38610c9, type: 3}
    - {fileID: 21300000, guid: 64bd27944417759419096b0f1e83600b, type: 3}
    - {fileID: 21300000, guid: 1191de915d4839f43bd82f8119089332, type: 3}
    - {fileID: 21300000, guid: 1e654de4edeaca44e8379aa8e6df56f6, type: 3}
    - {fileID: 21300000, guid: 61b83a72041415b4594a1517d4459abd, type: 3}
    - {fileID: 21300000, guid: 79fc6d4b935f46a47a8c4215002b7059, type: 3}
    - {fileID: 21300000, guid: c17d18ee90539504ba2a39982b802e79, type: 3}
    - {fileID: 21300000, guid: 09ce0b67f3f5f2741888a2463ab70fb6, type: 3}
    - {fileID: 21300000, guid: a63e50dd162fcef4392405f61c06dd42, type: 3}
    - {fileID: 21300000, guid: cada9e458c8b5c641b8a5b7951d839c0, type: 3}
    - {fileID: 21300000, guid: 4003674e366b6864badec53f0b614eed, type: 3}
    - {fileID: 21300000, guid: 31cb2261529050145a7624e1dd7eaeb1, type: 3}
    - {fileID: 21300000, guid: 20bd1388a97d3e14cb1077efe70098c1, type: 3}
    - {fileID: 21300000, guid: 9856d67ad52411540aaa2938c176a2c2, type: 3}
    - {fileID: 21300000, guid: aed9dba8f1bf7eb4584ad6f3d3654fe4, type: 3}
    - {fileID: 21300000, guid: acd700c10e6d9c447bcb943a280bb586, type: 3}
    - {fileID: 21300000, guid: 1b530ca545b1aef4490d423ccaee75a2, type: 3}
    - {fileID: 21300000, guid: d60084f0dd1c895419474d69a4a55f7a, type: 3}
    - {fileID: 21300000, guid: aad3596121ef6f146884046dfc9dd8f7, type: 3}
    - {fileID: 21300000, guid: e94022d6f0fb2634c8e467f0027172f2, type: 3}
    - {fileID: 21300000, guid: 35956eb43a21fa045895a0e641158ff5, type: 3}
    - {fileID: 21300000, guid: b7783d4d59c2bbc47b018d140a508d48, type: 3}
    - {fileID: 21300000, guid: 3e5f0a10d4db8b248a7feb35e1376fca, type: 3}
    - {fileID: 21300000, guid: 80c060a9f5df7c0418d9b18a027508f3, type: 3}
    - {fileID: 21300000, guid: 44c1bcb475cfe254dbda446ac6312f19, type: 3}
    - {fileID: 21300000, guid: d04c590ce163ba0468e3829a13bf41ba, type: 3}
    - {fileID: 21300000, guid: 13da77a2391647643abb8681fad87c49, type: 3}
    - {fileID: 21300000, guid: d5f6f9e2809b0594ab34f86c4af51eb2, type: 3}
    - {fileID: 21300000, guid: a28ad0c4ef66bca468f4eda7f6253bc0, type: 3}
    - {fileID: 21300000, guid: 84610e8645c7c82439c1002696aa45f5, type: 3}
    - {fileID: 21300000, guid: 7fcd76785890a36499c603b9d8234c24, type: 3}
    - {fileID: 21300000, guid: 54e9a09f47cdf4d42aef39a08ebd3f49, type: 3}
    - {fileID: 21300000, guid: afb02d95a8a0b6f4a8db3681a8634c09, type: 3}
    - {fileID: 21300000, guid: d96371897e1b45b4c831a571e731ef88, type: 3}
    - {fileID: 21300000, guid: b3c1896d1bcb491408e59644dce95690, type: 3}
    - {fileID: 21300000, guid: 38f1eb19b2909fa458ebc8750ae7150b, type: 3}
    - {fileID: 21300000, guid: 521138dc09dc2e745b077db29ed70a5c, type: 3}
  m_AnimationClipSettings:
    serializedVersion: 2
    m_AdditiveReferencePoseClip: {fileID: 0}
    m_AdditiveReferencePoseTime: 0
    m_StartTime: 0
    m_StopTime: 1.025
    m_OrientationOffsetY: 0
    m_Level: 0
    m_CycleOffset: 0
    m_HasAdditiveReferencePose: 0
    m_LoopTime: 1
    m_LoopBlend: 0
    m_LoopBlendOrientation: 0
    m_LoopBlendPositionY: 0
    m_LoopBlendPositionXZ: 0
    m_KeepOriginalOrientation: 0
    m_KeepOriginalPositionY: 1
    m_KeepOriginalPositionXZ: 0
    m_HeightFromFeet: 0
    m_Mirror: 0
  m_EditorCurves: []
  m_EulerEditorCurves: []
  m_HasGenericRootTransform: 0
  m_HasMotionFloatCurves: 0
  m_GenerateMotionCurves: 0
  m_Events: []
