%YAML 1.1
%TAG !u! tag:unity3d.com,2011:
--- !u!1045 &1
EditorBuildSettings:
  m_ObjectHideFlags: 0
  serializedVersion: 2
  m_Scenes:
  - enabled: 1
    path: Assets/Menu.unity
    guid: f3d8e6bfb60f66e4799c99c22b0f3870
  - enabled: 1
    path: Assets/FirstLevel.unity
    guid: 71dbc535cbd8e45d6bc8fe90851bcee7
